\relax 
\providecommand\hyper@newdestlabel[2]{}
\catcode `"\active 
\providecommand\HyperFirstAtBeginDocument{\AtBeginDocument}
\HyperFirstAtBeginDocument{\ifx\hyper@anchor\@undefined
\global\let\oldcontentsline\contentsline
\gdef\contentsline#1#2#3#4{\oldcontentsline{#1}{#2}{#3}}
\global\let\oldnewlabel\newlabel
\gdef\newlabel#1#2{\newlabelxx{#1}#2}
\gdef\newlabelxx#1#2#3#4#5#6{\oldnewlabel{#1}{{#2}{#3}}}
\AtEndDocument{\ifx\hyper@anchor\@undefined
\let\contentsline\oldcontentsline
\let\newlabel\oldnewlabel
\fi}
\fi}
\global\let\hyper@last\relax 
\gdef\HyperFirstAtBeginDocument#1{#1}
\providecommand\HyField@AuxAddToFields[1]{}
\providecommand\HyField@AuxAddToCoFields[2]{}
\citation{abnt-url-package=url}
\citation{Kuo:93}
\citation{Gosh:96}
\citation{Kuo:93}
\citation{Lopes:14}
\select@language{brazil}
\@writefile{toc}{\select@language{brazil}}
\@writefile{lof}{\select@language{brazil}}
\@writefile{lot}{\select@language{brazil}}
\@writefile{toc}{\contentsline {section}{\numberline {1}Introdu\IeC {\c c}\IeC {\~a}o}{1}{section.1}}
\newlabel{sec:introducao}{{1}{1}{Introdução}{section.1}{}}
\newlabel{sec:introducao@cref}{{[section][1][]1}{1}}
\citation{Kuo:93}
\citation{Kuo:93}
\citation{Gosh:96}
\citation{Silva:06}
\citation{Aringhieri:08}
\citation{Marti:10}
\@writefile{toc}{\contentsline {subsection}{\numberline {1.1}Aplica\IeC {\c c}\IeC {\~o}es}{2}{subsection.1.1}}
\@writefile{lof}{\contentsline {figure}{\numberline {1}{\ignorespaces Sa\IeC {\'\i }da gerada por um algoritmo de M\IeC {\'\i }nimo Invent\IeC {\'a}rio/M\IeC {\'a}xima Diversidade. Em (a) inspirados na logo da Mercedez Benz, s\IeC {\~a}o produzidas imagens de linhas concentricas. Em (b) os logos s\IeC {\~a}o construidos \IeC {\'a} partir de semic\IeC {\'\i }rculos, com jun\IeC {\c c}\IeC {\~o}es em pontos igualmente distribuidos em uma linha vertical}}{2}{figure.1}}
\@writefile{lof}{\contentsline {subfigure}{\numberline{(a)}{\ignorespaces sub1}}{2}{figure.1}}
\@writefile{lof}{\contentsline {subfigure}{\numberline{(b)}{\ignorespaces sub2}}{2}{figure.1}}
\newlabel{fig:maxInventory}{{1}{2}{Saída gerada por um algoritmo de Mínimo Inventário/Máxima Diversidade. Em (a) inspirados na logo da Mercedez Benz, são produzidas imagens de linhas concentricas. Em (b) os logos são construidos á partir de semicírculos, com junções em pontos igualmente distribuidos em uma linha vertical}{figure.1}{}}
\newlabel{fig:maxInventory@cref}{{[figure][1][]1}{2}}
\@writefile{toc}{\contentsline {section}{\numberline {2}Trabalhos relacioandos}{2}{section.2}}
\newlabel{sec:trabalhos}{{2}{2}{Trabalhos relacioandos}{section.2}{}}
\newlabel{sec:trabalhos@cref}{{[section][2][]2}{2}}
\citation{Kuo:93}
\@writefile{toc}{\contentsline {section}{\numberline {3}Metodologia}{3}{section.3}}
\newlabel{sec:metodologia}{{3}{3}{Metodologia}{section.3}{}}
\newlabel{sec:metodologia@cref}{{[section][3][]3}{3}}
\@writefile{toc}{\contentsline {subsection}{\numberline {3.1}Modelo}{3}{subsection.3.1}}
\newlabel{subsec:modelo}{{3.1}{3}{Modelo}{subsection.3.1}{}}
\newlabel{subsec:modelo@cref}{{[subsection][1][3]3.1}{3}}
\newlabel{eq:F1}{{1}{3}{Modelo}{equation.3.1}{}}
\newlabel{eq:F1@cref}{{[equation][1][]1}{3}}
\newlabel{eq:F1R1}{{2}{3}{Modelo}{equation.3.2}{}}
\newlabel{eq:F1R1@cref}{{[equation][2][]2}{3}}
\newlabel{eq:F1R2}{{3}{3}{Modelo}{equation.3.3}{}}
\newlabel{eq:F1R2@cref}{{[equation][3][]3}{3}}
\newlabel{eq:F2}{{4}{3}{Modelo}{equation.3.4}{}}
\newlabel{eq:F2@cref}{{[equation][4][]4}{3}}
\citation{Feo:89}
\citation{Gosh:96}
\citation{Lopes:14}
\citation{Lopes:14}
\newlabel{eq:F2R1}{{5}{4}{Modelo}{equation.3.5}{}}
\newlabel{eq:F2R1@cref}{{[equation][5][]5}{4}}
\newlabel{eq:F2R2}{{6}{4}{Modelo}{equation.3.6}{}}
\newlabel{eq:F2R2@cref}{{[equation][6][]6}{4}}
\newlabel{eq:F2R3}{{7}{4}{Modelo}{equation.3.7}{}}
\newlabel{eq:F2R3@cref}{{[equation][7][]7}{4}}
\newlabel{eq:F2R4}{{8}{4}{Modelo}{equation.3.8}{}}
\newlabel{eq:F2R4@cref}{{[equation][8][]8}{4}}
\newlabel{eq:F2R5}{{9}{4}{Modelo}{equation.3.9}{}}
\newlabel{eq:F2R5@cref}{{[equation][9][]9}{4}}
\newlabel{eq:F2R6}{{10}{4}{Modelo}{equation.3.10}{}}
\newlabel{eq:F2R6@cref}{{[equation][10][]10}{4}}
\@writefile{toc}{\contentsline {subsection}{\numberline {3.2}GRASP}{4}{subsection.3.2}}
\@writefile{loa}{\contentsline {algocf}{\numberline {1}{\ignorespaces \textsc  {GRASP}}}{5}{algocf.1}}
\newlabel{alg:alg1}{{1}{5}{GRASP}{algocf.1}{}}
\newlabel{alg:alg1@cref}{{[algocf][1][]1}{5}}
\@writefile{toc}{\contentsline {section}{\numberline {4}Experimentos Computacionais}{5}{section.4}}
\newlabel{sec:experimentos}{{4}{5}{Experimentos Computacionais}{section.4}{}}
\newlabel{sec:experimentos@cref}{{[section][4][]4}{5}}
\@writefile{toc}{\contentsline {subsection}{\numberline {4.1}Inst\IeC {\^a}ncias}{5}{subsection.4.1}}
\@writefile{lof}{\contentsline {figure}{\numberline {2}{\ignorespaces Exemplo de input gerado para o PDM}}{6}{figure.2}}
\newlabel{fig:input}{{2}{6}{Exemplo de input gerado para o PDM}{figure.2}{}}
\newlabel{fig:input@cref}{{[figure][2][]2}{6}}
\@writefile{lof}{\contentsline {figure}{\numberline {3}{\ignorespaces Inst\IeC {\^a}ncia interpret\IeC {\'a}vel pelo CPLEX relativa \IeC {\`a} \autoref  {fig:input}}}{6}{figure.3}}
\newlabel{fig:cplexinput}{{3}{6}{Instância interpretável pelo CPLEX relativa à \autoref {fig:input}}{figure.3}{}}
\newlabel{fig:cplexinput@cref}{{[figure][3][]3}{6}}
\@writefile{toc}{\contentsline {subsection}{\numberline {4.2}Resultados}{6}{subsection.4.2}}
\newlabel{tab:n10}{{4.2}{7}{Resultados}{subsection.4.2}{}}
\newlabel{tab:n10@cref}{{[subsection][2][4]4.2}{7}}
\@writefile{lot}{\contentsline {table}{\numberline {1}{\ignorespaces \relax \fontsize  {10.95}{13.6}\selectfont  \abovedisplayskip 11\p@ plus3\p@ minus6\p@ \abovedisplayshortskip \z@ plus3\p@ \belowdisplayshortskip 6.5\p@ plus3.5\p@ minus3\p@ \def \leftmargin \leftmargini \parsep 0\p@ plus1\p@ minus\p@ \topsep 0\p@ plus2\p@ minus4\p@ \itemsep 0\p@ {\leftmargin \leftmargini \topsep 9\p@ plus3\p@ minus5\p@ \parsep 4.5\p@ plus2\p@ minus\p@ \itemsep \parsep }\belowdisplayskip \abovedisplayskip {\relax \fontsize  {10.95}{13.6}\selectfont  \abovedisplayskip 11\p@ plus3\p@ minus6\p@ \abovedisplayshortskip \z@ plus3\p@ \belowdisplayshortskip 6.5\p@ plus3.5\p@ minus3\p@ \def \leftmargin \leftmargini \parsep 0\p@ plus1\p@ minus\p@ \topsep 0\p@ plus2\p@ minus4\p@ \itemsep 0\p@ {\leftmargin \leftmargini \topsep 9\p@ plus3\p@ minus5\p@ \parsep 4.5\p@ plus2\p@ minus\p@ \itemsep \parsep }\belowdisplayskip \abovedisplayskip {Resultados para os algoritmos CPLEX e GRASP para inst\IeC {\^a}ncias de tamanho n=10}}}}{7}{table.1}}
\@writefile{lot}{\contentsline {table}{\numberline {2}{\ignorespaces \relax \fontsize  {10.95}{13.6}\selectfont  \abovedisplayskip 11\p@ plus3\p@ minus6\p@ \abovedisplayshortskip \z@ plus3\p@ \belowdisplayshortskip 6.5\p@ plus3.5\p@ minus3\p@ \def \leftmargin \leftmargini \parsep 0\p@ plus1\p@ minus\p@ \topsep 0\p@ plus2\p@ minus4\p@ \itemsep 0\p@ {\leftmargin \leftmargini \topsep 9\p@ plus3\p@ minus5\p@ \parsep 4.5\p@ plus2\p@ minus\p@ \itemsep \parsep }\belowdisplayskip \abovedisplayskip {Resultados para os algoritmos CPLEX e GRASP para inst\IeC {\^a}ncias de tamanho n=20}}}{7}{table.2}}
\newlabel{tab:n20}{{2}{7}{\small {Resultados para os algoritmos CPLEX e GRASP para instâncias de tamanho n=20}}{table.2}{}}
\newlabel{tab:n20@cref}{{[table][2][]2}{7}}
\@writefile{lot}{\contentsline {table}{\numberline {3}{\ignorespaces \relax \fontsize  {10.95}{13.6}\selectfont  \abovedisplayskip 11\p@ plus3\p@ minus6\p@ \abovedisplayshortskip \z@ plus3\p@ \belowdisplayshortskip 6.5\p@ plus3.5\p@ minus3\p@ \def \leftmargin \leftmargini \parsep 0\p@ plus1\p@ minus\p@ \topsep 0\p@ plus2\p@ minus4\p@ \itemsep 0\p@ {\leftmargin \leftmargini \topsep 9\p@ plus3\p@ minus5\p@ \parsep 4.5\p@ plus2\p@ minus\p@ \itemsep \parsep }\belowdisplayskip \abovedisplayskip {Resultados para os algoritmos CPLEX e GRASP para inst\IeC {\^a}ncias de tamanho n=30}}}{8}{table.3}}
\newlabel{tab:n30}{{3}{8}{\small {Resultados para os algoritmos CPLEX e GRASP para instâncias de tamanho n=30}}{table.3}{}}
\newlabel{tab:n30@cref}{{[table][3][]3}{8}}
\newlabel{tab:n40}{{4.2}{8}{Resultados}{table.3}{}}
\newlabel{tab:n40@cref}{{[subsection][2][4]4.2}{8}}
\@writefile{lot}{\contentsline {table}{\numberline {4}{\ignorespaces \relax \fontsize  {10.95}{13.6}\selectfont  \abovedisplayskip 11\p@ plus3\p@ minus6\p@ \abovedisplayshortskip \z@ plus3\p@ \belowdisplayshortskip 6.5\p@ plus3.5\p@ minus3\p@ \def \leftmargin \leftmargini \parsep 0\p@ plus1\p@ minus\p@ \topsep 0\p@ plus2\p@ minus4\p@ \itemsep 0\p@ {\leftmargin \leftmargini \topsep 9\p@ plus3\p@ minus5\p@ \parsep 4.5\p@ plus2\p@ minus\p@ \itemsep \parsep }\belowdisplayskip \abovedisplayskip {Resultados para os algoritmos CPLEX e GRASP para inst\IeC {\^a}ncias de tamanho n=40}}}{8}{table.4}}
\newlabel{tab:n40}{{4}{8}{\small {Resultados para os algoritmos CPLEX e GRASP para instâncias de tamanho n=40}}{table.4}{}}
\newlabel{tab:n40@cref}{{[table][4][]4}{8}}
\@writefile{lot}{\contentsline {table}{\numberline {5}{\ignorespaces \relax \fontsize  {10.95}{13.6}\selectfont  \abovedisplayskip 11\p@ plus3\p@ minus6\p@ \abovedisplayshortskip \z@ plus3\p@ \belowdisplayshortskip 6.5\p@ plus3.5\p@ minus3\p@ \def \leftmargin \leftmargini \parsep 0\p@ plus1\p@ minus\p@ \topsep 0\p@ plus2\p@ minus4\p@ \itemsep 0\p@ {\leftmargin \leftmargini \topsep 9\p@ plus3\p@ minus5\p@ \parsep 4.5\p@ plus2\p@ minus\p@ \itemsep \parsep }\belowdisplayskip \abovedisplayskip {Resultados para os algoritmos CPLEX e GRASP para inst\IeC {\^a}ncias de tamanho n=50}}}{9}{table.5}}
\newlabel{tab:n50}{{5}{9}{\small {Resultados para os algoritmos CPLEX e GRASP para instâncias de tamanho n=50}}{table.5}{}}
\newlabel{tab:n50@cref}{{[table][5][]5}{9}}
\@writefile{lof}{\contentsline {figure}{\numberline {4}{\ignorespaces Gr\IeC {\'a}fico de tempo de execu\IeC {\c c}\IeC {\~a}o (em segundos) para os solucionadores CPLEX e GRASP. A curva de tempo necess\IeC {\'a}rio para encontrar a solu\IeC {\c c}\IeC {\~a}o cresce n\IeC {\~a}o apenas com o n\IeC {\'u}mero de v\IeC {\'e}rtices no grafo, mas tamb\IeC {\'e}m com o n\IeC {\'u}mero de itens m a se encontrar para a diversidade m\IeC {\'a}xima}}{9}{figure.4}}
\newlabel{fig:grafico}{{4}{9}{Gráfico de tempo de execução (em segundos) para os solucionadores CPLEX e GRASP. A curva de tempo necessário para encontrar a solução cresce não apenas com o número de vértices no grafo, mas também com o número de itens m a se encontrar para a diversidade máxima}{figure.4}{}}
\newlabel{fig:grafico@cref}{{[figure][4][]4}{9}}
\@writefile{toc}{\contentsline {section}{\numberline {5}Conclus\IeC {\~a}o}{10}{section.5}}
\newlabel{sec:conclusao}{{5}{10}{Conclusão}{section.5}{}}
\newlabel{sec:conclusao@cref}{{[section][5][]5}{10}}
\bibstyle{sbc}
\bibdata{abntex2-options,sbc-template}
\bibcite{abnt-url-package=url}{aaaa }
\bibcite{Aringhieri:08}{Aringhieri et~al. 2008}
\bibcite{Feo:89}{Feo and Resende 1989}
\bibcite{Gosh:96}{Ghosh 1996}
\bibcite{Kuo:93}{Kuo et~al. 1993}
\bibcite{Lopes:14}{Lopes 2014}
\bibcite{Marti:10}{Marti et~al. 2010}
\bibcite{Silva:06}{Silva et~al. 2006}
